<svg width="25" height="25" xmlns="http://www.w3.org/2000/svg">
 <g id="Identicon">
  <title>Identicon</title>
  <rect stroke-width="0" height="5" width="5" fill="#3B82F6"/>
  <rect stroke-width="0" height="5" width="5" x="20" fill="#3B82F6"/>
  <rect stroke-width="0" height="15" width="5" x="10" fill="#3B82F6"/>
  <rect stroke-width="0" height="10" width="5" y="15" fill="#3B82F6"/>
  <rect stroke-width="0" height="5" width="15" y="5" x="5"  fill="#3B82F6"/>
  <rect stroke-width="0" height="10" width="5" y="15" x="20" fill="#3B82F6"/>
 </g>
</svg>